H|1|20200223|V1.0||
B|2|LHPROP-I|RED|O|20201228
B|3|LHPROP-I|SWO|O|20201228
B|4|LHPROP-I|RED|O|20201221
B|5|LHPROP-I|SWO|O|20201221
B|6|LHPROP-I|RED|O|20201214
B|7|LHPROP-I|SWO|O|20201214
B|8|LHPROP-I|RED|O|20201208
B|9|LHPROP-I|SWO|O|20201208
B|10|LHPROP-I|RED|O|20201130
B|11|LHPROP-I|SWO|O|20201130
B|12|LHPROP-I|RED|O|20201123
B|13|LHPROP-I|SWO|O|20201123
B|14|LHPROP-I|RED|O|20201116
B|15|LHPROP-I|SWO|O|20201116
B|16|LHPROP-I|RED|O|20201109
B|17|LHPROP-I|SWO|O|20201109
B|18|LHPROP-I|RED|O|20201102
B|19|LHPROP-I|SWO|O|20201102
B|20|LHPROP-I|RED|O|20201026
B|21|LHPROP-I|SWO|O|20201026
B|22|LHPROP-I|RED|O|20201019
B|23|LHPROP-I|SWO|O|20201019
B|24|LHPROP-I|RED|O|20201012
B|25|LHPROP-I|SWO|O|20201012
B|26|LHPROP-I|RED|O|20201005
B|27|LHPROP-I|SWO|O|20201005
B|28|LHPROP-I|RED|O|20200928
B|29|LHPROP-I|SWO|O|20200928
B|30|LHPROP-I|RED|O|20200921
B|31|LHPROP-I|SWO|O|20200921
B|32|LHPROP-I|RED|O|20200914
B|33|LHPROP-I|SWO|O|20200914
B|34|LHPROP-I|RED|O|20200907
B|35|LHPROP-I|SWO|O|20200907
B|36|LHPROP-I|RED|O|20200831
B|37|LHPROP-I|SWO|O|20200831
B|38|LHPROP-I|RED|O|20200824
B|39|LHPROP-I|SWO|O|20200824
B|40|LHPROP-I|RED|O|20200817
B|41|LHPROP-I|SWO|O|20200817
B|42|LHPROP-I|RED|O|20200810
B|43|LHPROP-I|SWO|O|20200810
B|44|LHPROP-I|RED|O|20200803
B|45|LHPROP-I|SWO|O|20200803
B|46|LHPROP-I|RED|O|20200727
B|47|LHPROP-I|SWO|O|20200727
B|48|LHPROP-I|RED|O|20200720
B|49|LHPROP-I|SWO|O|20200720
B|50|LHPROP-I|RED|O|20200713
B|51|LHPROP-I|SWO|O|20200713
B|52|LHPROP-I|RED|O|20200707
B|53|LHPROP-I|SWO|O|20200707
B|54|LHPROP-I|RED|O|20200629
B|55|LHPROP-I|SWO|O|20200629
B|56|LHPROP-I|RED|O|20200622
B|57|LHPROP-I|SWO|O|20200622
B|58|LHPROP-I|RED|O|20200615
B|59|LHPROP-I|SWO|O|20200615
B|60|LHPROP-I|RED|O|20200608
B|61|LHPROP-I|SWO|O|20200608
B|62|LHPROP-I|RED|O|20200601
B|63|LHPROP-I|SWO|O|20200601
B|64|LHPROP-I|RED|O|20200525
B|65|LHPROP-I|SWO|O|20200525
B|66|LHPROP-I|RED|O|20200518
B|67|LHPROP-I|SWO|O|20200518
B|68|LHPROP-I|RED|O|20200511
B|69|LHPROP-I|SWO|O|20200511
B|70|LHPROP-I|RED|O|20200505
B|71|LHPROP-I|SWO|O|20200505
B|72|LHPROP-I|RED|O|20200427
B|73|LHPROP-I|SWO|O|20200427
B|74|LHPROP-I|RED|O|20200420
B|75|LHPROP-I|SWO|O|20200420
B|76|LHPROP-I|RED|O|20200416
B|77|LHPROP-I|SWO|O|20200416
B|78|LHPROP-I|RED|O|20200407
B|79|LHPROP-I|SWO|O|20200407
B|80|LHPROP-I|RED|O|20200330
B|81|LHPROP-I|SWO|O|20200330
B|82|LHPROP-I|RED|O|20200323
B|83|LHPROP-I|SWO|O|20200323
B|84|LHPROP-I|RED|O|20200316
B|85|LHPROP-I|SWO|O|20200316
B|86|LHEQDPLUS-A|RED|O|20201225
B|87|LHEQDPLUS-A|SWO|O|20201225
B|88|LHEQDPLUS-A|RED|O|20201125
B|89|LHEQDPLUS-A|SWO|O|20201125
B|90|LHEQDPLUS-A|RED|O|20201026
B|91|LHEQDPLUS-A|SWO|O|20201026
B|92|LHEQDPLUS-A|RED|O|20200925
B|93|LHEQDPLUS-A|SWO|O|20200925
B|94|LHEQDPLUS-A|RED|O|20200825
B|95|LHEQDPLUS-A|SWO|O|20200825
B|96|LHEQDPLUS-A|RED|O|20200727
B|97|LHEQDPLUS-A|SWO|O|20200727
B|98|LHEQDPLUS-A|RED|O|20200625
B|99|LHEQDPLUS-A|SWO|O|20200625
B|100|LHEQDPLUS-A|RED|O|20200525
B|101|LHEQDPLUS-A|SWO|O|20200525
B|102|LHEQDPLUS-A|RED|O|20200427
B|103|LHEQDPLUS-A|SWO|O|20200427
B|104|LHEQDPLUS-A|RED|O|20200325
B|105|LHEQDPLUS-A|SWO|O|20200325
B|106|LHEQDPLUS-D|RED|O|20201225
B|107|LHEQDPLUS-D|SWO|O|20201225
B|108|LHEQDPLUS-D|RED|O|20201125
B|109|LHEQDPLUS-D|SWO|O|20201125
B|110|LHEQDPLUS-D|RED|O|20201026
B|111|LHEQDPLUS-D|SWO|O|20201026
B|112|LHEQDPLUS-D|RED|O|20200925
B|113|LHEQDPLUS-D|SWO|O|20200925
B|114|LHEQDPLUS-D|RED|O|20200825
B|115|LHEQDPLUS-D|SWO|O|20200825
B|116|LHEQDPLUS-D|RED|O|20200727
B|117|LHEQDPLUS-D|SWO|O|20200727
B|118|LHEQDPLUS-D|RED|O|20200625
B|119|LHEQDPLUS-D|SWO|O|20200625
B|120|LHEQDPLUS-D|RED|O|20200525
B|121|LHEQDPLUS-D|SWO|O|20200525
B|122|LHEQDPLUS-D|RED|O|20200427
B|123|LHEQDPLUS-D|SWO|O|20200427
B|124|LHEQDPLUS-D|RED|O|20200325
B|125|LHEQDPLUS-D|SWO|O|20200325
B|126|ASP-TFIXED3|SUB|O|20200410
B|127|ASP-TFIXED3|SWI|O|20200410
B|128|ASP-TFIXED3|SUB|O|20200416
B|129|ASP-TFIXED3|SWI|O|20200416
B|130|ASP-TFIXED3|SUB|O|20200417
B|131|ASP-TFIXED3|SWI|O|20200417
B|132|ASP-TFIXED3|SUB|O|20200420
B|133|ASP-TFIXED3|SWI|O|20200420
B|134|ASP-TFIXED3|SUB|O|20200421
B|135|ASP-TFIXED3|SWI|O|20200421
B|136|ASP-TFIXED3|SUB|O|20200422
B|137|ASP-TFIXED3|SWI|O|20200422
B|138|ASP-TFIXED3|RED|O|20200410
B|139|ASP-TFIXED3|SWO|O|20200410
B|140|ASP-TFIXED3|RED|O|20200416
B|141|ASP-TFIXED3|SWO|O|20200416
B|142|ASP-TFIXED3|RED|O|20200417
B|143|ASP-TFIXED3|SWO|O|20200417
B|144|ASP-AIF1|SUB|O|20200410
B|145|ASP-AIF1|SWI|O|20200410
B|146|ASP-AIF1|SUB|O|20200416
B|147|ASP-AIF1|SWI|O|20200416
B|148|ASP-AIF1|SUB|O|20200417
B|149|ASP-AIF1|SWI|O|20200417
B|150|ASP-AIF1|SUB|O|20200420
B|151|ASP-AIF1|SWI|O|20200420
B|152|ASP-AIF1|SUB|O|20200421
B|153|ASP-AIF1|SWI|O|20200421
B|154|ASP-AIF1|SUB|O|20200422
B|155|ASP-AIF1|SWI|O|20200422
B|156|ASP-AIF1|RED|O|20200410
B|157|ASP-AIF1|SWO|O|20200410
B|158|ASP-AIF1|RED|O|20200416
B|159|ASP-AIF1|SWO|O|20200416
B|160|ASP-AIF1|RED|O|20200417
B|161|ASP-AIF1|SWO|O|20200417
B|162|ASP-TFIXED5|SUB|O|20200505
B|163|ASP-TFIXED5|SWI|O|20200505
B|164|ASP-TFIXED5|SUB|O|20200507
B|165|ASP-TFIXED5|SWI|O|20200507
B|166|ASP-TFIXED5|SUB|O|20200508
B|167|ASP-TFIXED5|SWI|O|20200508
B|168|ASP-TFIXED5|SUB|O|20200511
B|169|ASP-TFIXED5|SWI|O|20200511
B|170|ASP-TFIXED5|SUB|O|20200512
B|171|ASP-TFIXED5|SWI|O|20200512
B|172|ASP-TFIXED5|SUB|O|20200513
B|173|ASP-TFIXED5|SWI|O|20200513
B|174|ASP-TFIXED5|RED|O|20200505
B|175|ASP-TFIXED5|SWO|O|20200505
B|176|ASP-TFIXED5|RED|O|20200507
B|177|ASP-TFIXED5|SWO|O|20200507
B|178|ASP-TFIXED5|RED|O|20200508
B|179|ASP-TFIXED5|SWO|O|20200508
B|180|ASP-TFIXED2|SUB|O|20200520
B|181|ASP-TFIXED2|SWI|O|20200520
B|182|ASP-TFIXED2|SUB|O|20200521
B|183|ASP-TFIXED2|SWI|O|20200521
B|184|ASP-TFIXED2|SUB|O|20200522
B|185|ASP-TFIXED2|SWI|O|20200522
B|186|ASP-TFIXED2|SUB|O|20200525
B|187|ASP-TFIXED2|SWI|O|20200525
B|188|ASP-TFIXED2|SUB|O|20200526
B|189|ASP-TFIXED2|SWI|O|20200526
B|190|ASP-TFIXED2|SUB|O|20200527
B|191|ASP-TFIXED2|SWI|O|20200527
B|192|ASP-TFIXED2|RED|O|20200520
B|193|ASP-TFIXED2|SWO|O|20200520
B|194|ASP-TFIXED2|RED|O|20200521
B|195|ASP-TFIXED2|SWO|O|20200521
B|196|ASP-TFIXED2|RED|O|20200522
B|197|ASP-TFIXED2|SWO|O|20200522
B|198|PRINCIPAL iPROPPLUS|RED|O|20200331
B|199|PRINCIPAL iPROPPLUS|SWO|O|20200331
B|200|PRINCIPAL iPROPPLUS|RED|O|20200430
B|201|PRINCIPAL iPROPPLUS|SWO|O|20200430
B|202|PRINCIPAL iPROPPLUS|RED|O|20200529
B|203|PRINCIPAL iPROPPLUS|SWO|O|20200529
B|204|PRINCIPAL iPROPPLUS|RED|O|20200630
B|205|PRINCIPAL iPROPPLUS|SWO|O|20200630
B|206|PRINCIPAL iPROPPLUS|RED|O|20200731
B|207|PRINCIPAL iPROPPLUS|SWO|O|20200731
B|208|PRINCIPAL iPROPPLUS|RED|O|20200831
B|209|PRINCIPAL iPROPPLUS|SWO|O|20200831
B|210|PRINCIPAL iPROPPLUS|RED|O|20200930
B|211|PRINCIPAL iPROPPLUS|SWO|O|20200930
B|212|PRINCIPAL iPROPPLUS|RED|O|20201030
B|213|PRINCIPAL iPROPPLUS|SWO|O|20201030
B|214|PRINCIPAL iPROPPLUS|RED|O|20201130
B|215|PRINCIPAL iPROPPLUS|SWO|O|20201130
B|216|PRINCIPAL iPROPPLUS|RED|O|20201230
B|217|PRINCIPAL iPROPPLUS|SWO|O|20201230
B|218|PRINCIPAL iPROPPLUS|RED|O|20210129
B|219|PRINCIPAL iPROPPLUS|SWO|O|20210129
B|220|PRINCIPAL iPROPPLUS|RED|O|20210226
B|221|PRINCIPAL iPROPPLUS|SWO|O|20210226
B|222|PRINCIPAL iPROPPLUS|RED|O|20210331
B|223|PRINCIPAL iPROPPLUS|SWO|O|20210331
B|224|PRINCIPAL iPROPPLUS|RED|O|20210430
B|225|PRINCIPAL iPROPPLUS|SWO|O|20210430
B|226|PRINCIPAL iPROPPLUS|RED|O|20210531
B|227|PRINCIPAL iPROPPLUS|SWO|O|20210531
B|228|PRINCIPAL iPROPPLUS|RED|O|20210630
B|229|PRINCIPAL iPROPPLUS|SWO|O|20210630
B|230|PRINCIPAL iPROPPLUS|RED|O|20210730
B|231|PRINCIPAL iPROPPLUS|SWO|O|20210730
B|232|PRINCIPAL iPROPPLUS|RED|O|20210831
B|233|PRINCIPAL iPROPPLUS|SWO|O|20210831
B|234|PRINCIPAL iPROPPLUS|RED|O|20210930
B|235|PRINCIPAL iPROPPLUS|SWO|O|20210930
B|236|PRINCIPAL iPROPPLUS|RED|O|20211029
B|237|PRINCIPAL iPROPPLUS|SWO|O|20211029
B|238|PRINCIPAL iPROPPLUS|RED|O|20211130
B|239|PRINCIPAL iPROPPLUS|SWO|O|20211130
B|240|PRINCIPAL iPROPPLUS|RED|O|20211231
B|241|PRINCIPAL iPROPPLUS|SWO|O|20211231
B|242|PRINCIPAL iPROPRMF|SWO|O|20200316
B|243|PRINCIPAL iPROPRMF|SWO|O|20200323
B|244|PRINCIPAL iPROPRMF|SWO|O|20200330
B|245|PRINCIPAL iPROPRMF|SWO|O|20200407
B|246|PRINCIPAL iPROPRMF|SWO|O|20200416
B|247|PRINCIPAL iPROPRMF|SWO|O|20200420
B|248|PRINCIPAL iPROPRMF|SWO|O|20200427
B|249|PRINCIPAL iPROPRMF|SWO|O|20200505
B|250|PRINCIPAL iPROPRMF|SWO|O|20200511
B|251|PRINCIPAL iPROPRMF|SWO|O|20200518
B|252|PRINCIPAL iPROPRMF|SWO|O|20200525
B|253|PRINCIPAL iPROPRMF|SWO|O|20200601
B|254|PRINCIPAL iPROPRMF|SWO|O|20200608
B|255|PRINCIPAL iPROPRMF|SWO|O|20200615
B|256|PRINCIPAL iPROPRMF|SWO|O|20200622
B|257|PRINCIPAL iPROPRMF|SWO|O|20200629
B|258|PRINCIPAL iPROPRMF|SWO|O|20200707
B|259|PRINCIPAL iPROPRMF|SWO|O|20200713
B|260|PRINCIPAL iPROPRMF|SWO|O|20200720
B|261|PRINCIPAL iPROPRMF|SWO|O|20200727
B|262|PRINCIPAL iPROPRMF|SWO|O|20200803
B|263|PRINCIPAL iPROPRMF|SWO|O|20200810
B|264|PRINCIPAL iPROPRMF|SWO|O|20200817
B|265|PRINCIPAL iPROPRMF|SWO|O|20200824
B|266|PRINCIPAL iPROPRMF|SWO|O|20200831
B|267|PRINCIPAL iPROPRMF|SWO|O|20200907
B|268|PRINCIPAL iPROPRMF|SWO|O|20200914
B|269|PRINCIPAL iPROPRMF|SWO|O|20200921
B|270|PRINCIPAL iPROPRMF|SWO|O|20200928
B|271|PRINCIPAL iPROPRMF|SWO|O|20201005
B|272|PRINCIPAL iPROPRMF|SWO|O|20201012
B|273|PRINCIPAL iPROPRMF|SWO|O|20201019
B|274|PRINCIPAL iPROPRMF|SWO|O|20201026
B|275|PRINCIPAL iPROPRMF|SWO|O|20201102
B|276|PRINCIPAL iPROPRMF|SWO|O|20201109
B|277|PRINCIPAL iPROPRMF|SWO|O|20201116
B|278|PRINCIPAL iPROPRMF|SWO|O|20201123
B|279|PRINCIPAL iPROPRMF|SWO|O|20201130
B|280|PRINCIPAL iPROPRMF|SWO|O|20201208
B|281|PRINCIPAL iPROPRMF|SWO|O|20201214
B|282|PRINCIPAL iPROPRMF|SWO|O|20201221
B|283|PRINCIPAL iPROPRMF|SWO|O|20201228
B|284|PRINCIPAL iPROPRMF|SWO|O|20210104
B|285|PRINCIPAL iPROPRMF|SWO|O|20210111
B|286|PRINCIPAL iPROPRMF|SWO|O|20210118
B|287|PRINCIPAL iPROPRMF|SWO|O|20210125
B|288|PRINCIPAL iPROPRMF|SWO|O|20210201
B|289|PRINCIPAL iPROPRMF|SWO|O|20210208
B|290|PRINCIPAL iPROPRMF|SWO|O|20210215
B|291|PRINCIPAL iPROPRMF|SWO|O|20210222
B|292|PRINCIPAL iPROPRMF|SWO|O|20210301
B|293|PRINCIPAL iPROPRMF|SWO|O|20210308
B|294|PRINCIPAL iPROPRMF|SWO|O|20210315
B|295|PRINCIPAL iPROPRMF|SWO|O|20210322
B|296|PRINCIPAL iPROPRMF|SWO|O|20210329
B|297|PRINCIPAL iPROPRMF|SWO|O|20210405
B|298|PRINCIPAL iPROPRMF|SWO|O|20210412
B|299|PRINCIPAL iPROPRMF|SWO|O|20210419
B|300|PRINCIPAL iPROPRMF|SWO|O|20210426
B|301|PRINCIPAL iPROPRMF|SWO|O|20210503
B|302|PRINCIPAL iPROPRMF|SWO|O|20210510
B|303|PRINCIPAL iPROPRMF|SWO|O|20210517
B|304|PRINCIPAL iPROPRMF|SWO|O|20210524
B|305|PRINCIPAL iPROPRMF|SWO|O|20210531
B|306|PRINCIPAL iPROPRMF|SWO|O|20210607
B|307|PRINCIPAL iPROPRMF|SWO|O|20210614
B|308|PRINCIPAL iPROPRMF|SWO|O|20210621
B|309|PRINCIPAL iPROPRMF|SWO|O|20210628
B|310|PRINCIPAL iPROPRMF|SWO|O|20210705
B|311|PRINCIPAL iPROPRMF|SWO|O|20210712
B|312|PRINCIPAL iPROPRMF|SWO|O|20210719
B|313|PRINCIPAL iPROPRMF|SWO|O|20210726
B|314|PRINCIPAL iPROPRMF|SWO|O|20210802
B|315|PRINCIPAL iPROPRMF|SWO|O|20210809
B|316|PRINCIPAL iPROPRMF|SWO|O|20210816
B|317|PRINCIPAL iPROPRMF|SWO|O|20210823
B|318|PRINCIPAL iPROPRMF|SWO|O|20210830
B|319|PRINCIPAL iPROPRMF|SWO|O|20210906
B|320|PRINCIPAL iPROPRMF|SWO|O|20210913
B|321|PRINCIPAL iPROPRMF|SWO|O|20210920
B|322|PRINCIPAL iPROPRMF|SWO|O|20210927
B|323|PRINCIPAL iPROPRMF|SWO|O|20211004
B|324|PRINCIPAL iPROPRMF|SWO|O|20211011
B|325|PRINCIPAL iPROPRMF|SWO|O|20211018
B|326|PRINCIPAL iPROPRMF|SWO|O|20211025
B|327|PRINCIPAL iPROPRMF|SWO|O|20211101
B|328|PRINCIPAL iPROPRMF|SWO|O|20211108
B|329|PRINCIPAL iPROPRMF|SWO|O|20211115
B|330|PRINCIPAL iPROPRMF|SWO|O|20211122
B|331|PRINCIPAL iPROPRMF|SWO|O|20211129
B|332|PRINCIPAL iPROPRMF|SWO|O|20211206
B|333|PRINCIPAL iPROPRMF|SWO|O|20211213
B|334|PRINCIPAL iPROPRMF|SWO|O|20211220
B|335|PRINCIPAL iPROPRMF|SWO|O|20211227
B|336|PRINCIPAL SIF|RED|O|20200331
B|337|PRINCIPAL SIF|SWO|O|20200331
B|338|PRINCIPAL SIF|RED|O|20200430
B|339|PRINCIPAL SIF|SWO|O|20200430
B|340|PRINCIPAL SIF|RED|O|20200529
B|341|PRINCIPAL SIF|SWO|O|20200529
B|342|PRINCIPAL SIF|RED|O|20200630
B|343|PRINCIPAL SIF|SWO|O|20200630
B|344|PRINCIPAL SIF|RED|O|20200731
B|345|PRINCIPAL SIF|SWO|O|20200731
B|346|PRINCIPAL SIF|RED|O|20200831
B|347|PRINCIPAL SIF|SWO|O|20200831
B|348|PRINCIPAL SIF|RED|O|20200930
B|349|PRINCIPAL SIF|SWO|O|20200930
B|350|PRINCIPAL SIF|RED|O|20201030
B|351|PRINCIPAL SIF|SWO|O|20201030
B|352|PRINCIPAL SIF|RED|O|20201130
B|353|PRINCIPAL SIF|SWO|O|20201130
B|354|PRINCIPAL SIF|RED|O|20201230
B|355|PRINCIPAL SIF|SWO|O|20201230
B|356|PRINCIPAL SIF|RED|O|20210129
B|357|PRINCIPAL SIF|SWO|O|20210129
B|358|PRINCIPAL SIF|RED|O|20210226
B|359|PRINCIPAL SIF|SWO|O|20210226
B|360|PRINCIPAL SIF|RED|O|20210331
B|361|PRINCIPAL SIF|SWO|O|20210331
B|362|PRINCIPAL SIF|RED|O|20210430
B|363|PRINCIPAL SIF|SWO|O|20210430
B|364|PRINCIPAL SIF|RED|O|20210531
B|365|PRINCIPAL SIF|SWO|O|20210531
B|366|PRINCIPAL SIF|RED|O|20210630
B|367|PRINCIPAL SIF|SWO|O|20210630
B|368|PRINCIPAL SIF|RED|O|20210730
B|369|PRINCIPAL SIF|SWO|O|20210730
B|370|PRINCIPAL SIF|RED|O|20210831
B|371|PRINCIPAL SIF|SWO|O|20210831
B|372|PRINCIPAL SIF|RED|O|20210930
B|373|PRINCIPAL SIF|SWO|O|20210930
B|374|PRINCIPAL SIF|RED|O|20211029
B|375|PRINCIPAL SIF|SWO|O|20211029
B|376|PRINCIPAL SIF|RED|O|20211130
B|377|PRINCIPAL SIF|SWO|O|20211130
B|378|PRINCIPAL SIF|RED|O|20211231
B|379|PRINCIPAL SIF|SWO|O|20211231
B|380|PRINCIPAL VNEQ-A|SUB|O|20200316
B|381|PRINCIPAL VNEQ-A|SWI|O|20200316
B|382|PRINCIPAL VNEQ-A|SUB|O|20200323
B|383|PRINCIPAL VNEQ-A|SWI|O|20200323
B|384|PRINCIPAL VNEQ-A|RED|O|20200327
B|385|PRINCIPAL VNEQ-A|SWO|O|20200327
B|386|PRINCIPAL VNEQ-A|RED|O|20200330
B|387|PRINCIPAL VNEQ-A|SUB|O|20200330
B|388|PRINCIPAL VNEQ-A|SWI|O|20200330
B|389|PRINCIPAL VNEQ-A|SWO|O|20200330
B|390|PRINCIPAL VNEQ-A|RED|O|20200331
B|391|PRINCIPAL VNEQ-A|SWO|O|20200331
B|392|PRINCIPAL VNEQ-A|SUB|O|20200407
B|393|PRINCIPAL VNEQ-A|SWI|O|20200407
B|394|PRINCIPAL VNEQ-A|SUB|O|20200416
B|395|PRINCIPAL VNEQ-A|SWI|O|20200416
B|396|PRINCIPAL VNEQ-A|SUB|O|20200420
B|397|PRINCIPAL VNEQ-A|SWI|O|20200420
B|398|PRINCIPAL VNEQ-A|RED|O|20200427
B|399|PRINCIPAL VNEQ-A|SUB|O|20200427
B|400|PRINCIPAL VNEQ-A|SWI|O|20200427
B|401|PRINCIPAL VNEQ-A|SWO|O|20200427
B|402|PRINCIPAL VNEQ-A|RED|O|20200428
B|403|PRINCIPAL VNEQ-A|SWO|O|20200428
B|404|PRINCIPAL VNEQ-A|RED|O|20200429
B|405|PRINCIPAL VNEQ-A|SWO|O|20200429
B|406|PRINCIPAL VNEQ-A|SUB|O|20200505
B|407|PRINCIPAL VNEQ-A|SWI|O|20200505
B|408|PRINCIPAL VNEQ-A|SUB|O|20200511
B|409|PRINCIPAL VNEQ-A|SWI|O|20200511
B|410|PRINCIPAL VNEQ-A|SUB|O|20200518
B|411|PRINCIPAL VNEQ-A|SWI|O|20200518
B|412|PRINCIPAL VNEQ-A|SUB|O|20200526
B|413|PRINCIPAL VNEQ-A|SWI|O|20200526
B|414|PRINCIPAL VNEQ-A|RED|O|20200527
B|415|PRINCIPAL VNEQ-A|SWO|O|20200527
B|416|PRINCIPAL VNEQ-A|RED|O|20200528
B|417|PRINCIPAL VNEQ-A|SWO|O|20200528
B|418|PRINCIPAL VNEQ-A|RED|O|20200529
B|419|PRINCIPAL VNEQ-A|SWO|O|20200529
B|420|PRINCIPAL VNEQ-A|SUB|O|20200601
B|421|PRINCIPAL VNEQ-A|SWI|O|20200601
B|422|PRINCIPAL VNEQ-A|SUB|O|20200608
B|423|PRINCIPAL VNEQ-A|SWI|O|20200608
B|424|PRINCIPAL VNEQ-A|SUB|O|20200615
B|425|PRINCIPAL VNEQ-A|SWI|O|20200615
B|426|PRINCIPAL VNEQ-A|SUB|O|20200622
B|427|PRINCIPAL VNEQ-A|SWI|O|20200622
B|428|PRINCIPAL VNEQ-A|RED|O|20200626
B|429|PRINCIPAL VNEQ-A|SWO|O|20200626
B|430|PRINCIPAL VNEQ-A|RED|O|20200629
B|431|PRINCIPAL VNEQ-A|SUB|O|20200629
B|432|PRINCIPAL VNEQ-A|SWI|O|20200629
B|433|PRINCIPAL VNEQ-A|SWO|O|20200629
B|434|PRINCIPAL VNEQ-A|RED|O|20200630
B|435|PRINCIPAL VNEQ-A|SWO|O|20200630
B|436|PRINCIPAL VNEQ-A|SUB|O|20200707
B|437|PRINCIPAL VNEQ-A|SWI|O|20200707
B|438|PRINCIPAL VNEQ-A|SUB|O|20200713
B|439|PRINCIPAL VNEQ-A|SWI|O|20200713
B|440|PRINCIPAL VNEQ-A|SUB|O|20200720
B|441|PRINCIPAL VNEQ-A|SWI|O|20200720
B|442|PRINCIPAL VNEQ-A|SUB|O|20200727
B|443|PRINCIPAL VNEQ-A|SWI|O|20200727
B|444|PRINCIPAL VNEQ-A|SUB|O|20200803
B|445|PRINCIPAL VNEQ-A|SWI|O|20200803
B|446|PRINCIPAL VNEQ-A|SUB|O|20200810
B|447|PRINCIPAL VNEQ-A|SWI|O|20200810
B|448|PRINCIPAL VNEQ-A|SUB|O|20200817
B|449|PRINCIPAL VNEQ-A|SWI|O|20200817
B|450|PRINCIPAL VNEQ-A|SUB|O|20200824
B|451|PRINCIPAL VNEQ-A|SWI|O|20200824
B|452|PRINCIPAL VNEQ-A|SUB|O|20200831
B|453|PRINCIPAL VNEQ-A|SWI|O|20200831
B|454|PRINCIPAL VNEQ-A|SUB|O|20200908
B|455|PRINCIPAL VNEQ-A|SWI|O|20200908
B|456|PRINCIPAL VNEQ-A|SUB|O|20200914
B|457|PRINCIPAL VNEQ-A|SWI|O|20200914
B|458|PRINCIPAL VNEQ-A|SUB|O|20200921
B|459|PRINCIPAL VNEQ-A|SWI|O|20200921
B|460|PRINCIPAL VNEQ-A|SUB|O|20200928
B|461|PRINCIPAL VNEQ-A|SWI|O|20200928
B|462|PRINCIPAL VNEQ-A|SUB|O|20201005
B|463|PRINCIPAL VNEQ-A|SWI|O|20201005
B|464|PRINCIPAL VNEQ-A|SUB|O|20201014
B|465|PRINCIPAL VNEQ-A|SWI|O|20201014
B|466|PRINCIPAL VNEQ-A|SUB|O|20201019
B|467|PRINCIPAL VNEQ-A|SWI|O|20201019
B|468|PRINCIPAL VNEQ-A|SUB|O|20201026
B|469|PRINCIPAL VNEQ-A|SWI|O|20201026
B|470|PRINCIPAL VNEQ-A|SUB|O|20201102
B|471|PRINCIPAL VNEQ-A|SWI|O|20201102
B|472|PRINCIPAL VNEQ-A|SUB|O|20201109
B|473|PRINCIPAL VNEQ-A|SWI|O|20201109
B|474|PRINCIPAL VNEQ-A|SUB|O|20201116
B|475|PRINCIPAL VNEQ-A|SWI|O|20201116
B|476|PRINCIPAL VNEQ-A|SUB|O|20201123
B|477|PRINCIPAL VNEQ-A|SWI|O|20201123
B|478|PRINCIPAL VNEQ-A|SUB|O|20201130
B|479|PRINCIPAL VNEQ-A|SWI|O|20201130
B|480|PRINCIPAL VNEQ-A|SUB|O|20201208
B|481|PRINCIPAL VNEQ-A|SWI|O|20201208
B|482|PRINCIPAL VNEQ-A|SUB|O|20201214
B|483|PRINCIPAL VNEQ-A|SWI|O|20201214
B|484|PRINCIPAL VNEQ-A|SUB|O|20201221
B|485|PRINCIPAL VNEQ-A|SWI|O|20201221
B|486|PRINCIPAL VNEQ-A|SUB|O|20201228
B|487|PRINCIPAL VNEQ-A|SWI|O|20201228
B|488|PRINCIPAL VNEQ-A|SUB|O|20210104
B|489|PRINCIPAL VNEQ-A|SWI|O|20210104
B|490|PRINCIPAL VNEQ-A|SUB|O|20210111
B|491|PRINCIPAL VNEQ-A|SWI|O|20210111
B|492|PRINCIPAL VNEQ-A|SUB|O|20210118
B|493|PRINCIPAL VNEQ-A|SWI|O|20210118
B|494|PRINCIPAL VNEQ-A|SUB|O|20210125
B|495|PRINCIPAL VNEQ-A|SWI|O|20210125
B|496|PRINCIPAL VNEQ-A|SUB|O|20210201
B|497|PRINCIPAL VNEQ-A|SWI|O|20210201
B|498|PRINCIPAL VNEQ-A|SUB|O|20210208
B|499|PRINCIPAL VNEQ-A|SWI|O|20210208
B|500|PRINCIPAL VNEQ-A|SUB|O|20210215
B|501|PRINCIPAL VNEQ-A|SWI|O|20210215
B|502|PRINCIPAL VNEQ-A|SUB|O|20210222
B|503|PRINCIPAL VNEQ-A|SWI|O|20210222
B|504|PRINCIPAL VNEQ-A|SUB|O|20210301
B|505|PRINCIPAL VNEQ-A|SWI|O|20210301
B|506|PRINCIPAL VNEQ-A|SUB|O|20210308
B|507|PRINCIPAL VNEQ-A|SWI|O|20210308
B|508|PRINCIPAL VNEQ-A|SUB|O|20210315
B|509|PRINCIPAL VNEQ-A|SWI|O|20210315
B|510|PRINCIPAL VNEQ-A|SUB|O|20210322
B|511|PRINCIPAL VNEQ-A|SWI|O|20210322
B|512|PRINCIPAL VNEQ-A|SUB|O|20210329
B|513|PRINCIPAL VNEQ-A|SWI|O|20210329
B|514|PRINCIPAL VNEQ-A|SUB|O|20210405
B|515|PRINCIPAL VNEQ-A|SWI|O|20210405
B|516|PRINCIPAL VNEQ-A|SUB|O|20210412
B|517|PRINCIPAL VNEQ-A|SWI|O|20210412
B|518|PRINCIPAL VNEQ-A|SUB|O|20210419
B|519|PRINCIPAL VNEQ-A|SWI|O|20210419
B|520|PRINCIPAL VNEQ-A|SUB|O|20210426
B|521|PRINCIPAL VNEQ-A|SWI|O|20210426
B|522|PRINCIPAL VNEQ-A|SUB|O|20210503
B|523|PRINCIPAL VNEQ-A|SWI|O|20210503
B|524|PRINCIPAL VNEQ-A|SUB|O|20210510
B|525|PRINCIPAL VNEQ-A|SWI|O|20210510
B|526|PRINCIPAL VNEQ-A|SUB|O|20210517
B|527|PRINCIPAL VNEQ-A|SWI|O|20210517
B|528|PRINCIPAL VNEQ-A|SUB|O|20210524
B|529|PRINCIPAL VNEQ-A|SWI|O|20210524
B|530|PRINCIPAL VNEQ-A|SUB|O|20210531
B|531|PRINCIPAL VNEQ-A|SWI|O|20210531
B|532|PRINCIPAL VNEQ-A|SUB|O|20210607
B|533|PRINCIPAL VNEQ-A|SWI|O|20210607
B|534|PRINCIPAL VNEQ-A|SUB|O|20210614
B|535|PRINCIPAL VNEQ-A|SWI|O|20210614
B|536|PRINCIPAL VNEQ-A|SUB|O|20210621
B|537|PRINCIPAL VNEQ-A|SWI|O|20210621
B|538|PRINCIPAL VNEQ-A|SUB|O|20210628
B|539|PRINCIPAL VNEQ-A|SWI|O|20210628
B|540|PRINCIPAL VNEQ-A|SUB|O|20210705
B|541|PRINCIPAL VNEQ-A|SWI|O|20210705
B|542|PRINCIPAL VNEQ-A|SUB|O|20210712
B|543|PRINCIPAL VNEQ-A|SWI|O|20210712
B|544|PRINCIPAL VNEQ-A|SUB|O|20210719
B|545|PRINCIPAL VNEQ-A|SWI|O|20210719
B|546|PRINCIPAL VNEQ-A|SUB|O|20210726
B|547|PRINCIPAL VNEQ-A|SWI|O|20210726
B|548|PRINCIPAL VNEQ-A|SUB|O|20210802
B|549|PRINCIPAL VNEQ-A|SWI|O|20210802
B|550|PRINCIPAL VNEQ-A|SUB|O|20210809
B|551|PRINCIPAL VNEQ-A|SWI|O|20210809
B|552|PRINCIPAL VNEQ-A|SUB|O|20210816
B|553|PRINCIPAL VNEQ-A|SWI|O|20210816
B|554|PRINCIPAL VNEQ-A|SUB|O|20210823
B|555|PRINCIPAL VNEQ-A|SWI|O|20210823
B|556|PRINCIPAL VNEQ-A|SUB|O|20210830
B|557|PRINCIPAL VNEQ-A|SWI|O|20210830
B|558|PRINCIPAL VNEQ-A|SUB|O|20210906
B|559|PRINCIPAL VNEQ-A|SWI|O|20210906
B|560|PRINCIPAL VNEQ-A|SUB|O|20210913
B|561|PRINCIPAL VNEQ-A|SWI|O|20210913
B|562|PRINCIPAL VNEQ-A|SUB|O|20210920
B|563|PRINCIPAL VNEQ-A|SWI|O|20210920
B|564|PRINCIPAL VNEQ-A|SUB|O|20210927
B|565|PRINCIPAL VNEQ-A|SWI|O|20210927
B|566|PRINCIPAL VNEQ-A|SUB|O|20211004
B|567|PRINCIPAL VNEQ-A|SWI|O|20211004
B|568|PRINCIPAL VNEQ-A|SUB|O|20211011
B|569|PRINCIPAL VNEQ-A|SWI|O|20211011
B|570|PRINCIPAL VNEQ-A|SUB|O|20211018
B|571|PRINCIPAL VNEQ-A|SWI|O|20211018
B|572|PRINCIPAL VNEQ-A|SUB|O|20211025
B|573|PRINCIPAL VNEQ-A|SWI|O|20211025
B|574|PRINCIPAL VNEQ-A|SUB|O|20211101
B|575|PRINCIPAL VNEQ-A|SWI|O|20211101
B|576|PRINCIPAL VNEQ-A|SUB|O|20211108
B|577|PRINCIPAL VNEQ-A|SWI|O|20211108
B|578|PRINCIPAL VNEQ-A|SUB|O|20211115
B|579|PRINCIPAL VNEQ-A|SWI|O|20211115
B|580|PRINCIPAL VNEQ-A|SUB|O|20211122
B|581|PRINCIPAL VNEQ-A|SWI|O|20211122
B|582|PRINCIPAL VNEQ-A|SUB|O|20211129
B|583|PRINCIPAL VNEQ-A|SWI|O|20211129
B|584|PRINCIPAL VNEQ-A|SUB|O|20211206
B|585|PRINCIPAL VNEQ-A|SWI|O|20211206
B|586|PRINCIPAL VNEQ-A|SUB|O|20211213
B|587|PRINCIPAL VNEQ-A|SWI|O|20211213
B|588|PRINCIPAL VNEQ-A|SUB|O|20211220
B|589|PRINCIPAL VNEQ-A|SWI|O|20211220
B|590|PRINCIPAL VNEQ-A|SUB|O|20211227
B|591|PRINCIPAL VNEQ-A|SWI|O|20211227
B|592|PRINCIPAL VNEQ-I|SUB|O|20200316
B|593|PRINCIPAL VNEQ-I|SWI|O|20200316
B|594|PRINCIPAL VNEQ-I|SUB|O|20200323
B|595|PRINCIPAL VNEQ-I|SWI|O|20200323
B|596|PRINCIPAL VNEQ-I|RED|O|20200327
B|597|PRINCIPAL VNEQ-I|SWO|O|20200327
B|598|PRINCIPAL VNEQ-I|RED|O|20200330
B|599|PRINCIPAL VNEQ-I|SUB|O|20200330
B|600|PRINCIPAL VNEQ-I|SWI|O|20200330
B|601|PRINCIPAL VNEQ-I|SWO|O|20200330
B|602|PRINCIPAL VNEQ-I|RED|O|20200331
B|603|PRINCIPAL VNEQ-I|SWO|O|20200331
B|604|PRINCIPAL VNEQ-I|SUB|O|20200407
B|605|PRINCIPAL VNEQ-I|SWI|O|20200407
B|606|PRINCIPAL VNEQ-I|SUB|O|20200416
B|607|PRINCIPAL VNEQ-I|SWI|O|20200416
B|608|PRINCIPAL VNEQ-I|SUB|O|20200420
B|609|PRINCIPAL VNEQ-I|SWI|O|20200420
B|610|PRINCIPAL VNEQ-I|RED|O|20200427
B|611|PRINCIPAL VNEQ-I|SUB|O|20200427
B|612|PRINCIPAL VNEQ-I|SWI|O|20200427
B|613|PRINCIPAL VNEQ-I|SWO|O|20200427
B|614|PRINCIPAL VNEQ-I|RED|O|20200428
B|615|PRINCIPAL VNEQ-I|SWO|O|20200428
B|616|PRINCIPAL VNEQ-I|RED|O|20200429
B|617|PRINCIPAL VNEQ-I|SWO|O|20200429
B|618|PRINCIPAL VNEQ-I|SUB|O|20200505
B|619|PRINCIPAL VNEQ-I|SWI|O|20200505
B|620|PRINCIPAL VNEQ-I|SUB|O|20200511
B|621|PRINCIPAL VNEQ-I|SWI|O|20200511
B|622|PRINCIPAL VNEQ-I|SUB|O|20200518
B|623|PRINCIPAL VNEQ-I|SWI|O|20200518
B|624|PRINCIPAL VNEQ-I|SUB|O|20200526
B|625|PRINCIPAL VNEQ-I|SWI|O|20200526
B|626|PRINCIPAL VNEQ-I|RED|O|20200527
B|627|PRINCIPAL VNEQ-I|SWO|O|20200527
B|628|PRINCIPAL VNEQ-I|RED|O|20200528
B|629|PRINCIPAL VNEQ-I|SWO|O|20200528
B|630|PRINCIPAL VNEQ-I|RED|O|20200529
B|631|PRINCIPAL VNEQ-I|SWO|O|20200529
B|632|PRINCIPAL VNEQ-I|SUB|O|20200601
B|633|PRINCIPAL VNEQ-I|SWI|O|20200601
B|634|PRINCIPAL VNEQ-I|SUB|O|20200608
B|635|PRINCIPAL VNEQ-I|SWI|O|20200608
B|636|PRINCIPAL VNEQ-I|SUB|O|20200615
B|637|PRINCIPAL VNEQ-I|SWI|O|20200615
B|638|PRINCIPAL VNEQ-I|SUB|O|20200622
B|639|PRINCIPAL VNEQ-I|SWI|O|20200622
B|640|PRINCIPAL VNEQ-I|RED|O|20200626
B|641|PRINCIPAL VNEQ-I|SWO|O|20200626
B|642|PRINCIPAL VNEQ-I|RED|O|20200629
B|643|PRINCIPAL VNEQ-I|SUB|O|20200629
B|644|PRINCIPAL VNEQ-I|SWI|O|20200629
B|645|PRINCIPAL VNEQ-I|SWO|O|20200629
B|646|PRINCIPAL VNEQ-I|RED|O|20200630
B|647|PRINCIPAL VNEQ-I|SWO|O|20200630
B|648|PRINCIPAL VNEQ-I|SUB|O|20200707
B|649|PRINCIPAL VNEQ-I|SWI|O|20200707
B|650|PRINCIPAL VNEQ-I|SUB|O|20200713
B|651|PRINCIPAL VNEQ-I|SWI|O|20200713
B|652|PRINCIPAL VNEQ-I|SUB|O|20200720
B|653|PRINCIPAL VNEQ-I|SWI|O|20200720
B|654|PRINCIPAL VNEQ-I|SUB|O|20200727
B|655|PRINCIPAL VNEQ-I|SWI|O|20200727
B|656|PRINCIPAL VNEQ-I|SUB|O|20200803
B|657|PRINCIPAL VNEQ-I|SWI|O|20200803
B|658|PRINCIPAL VNEQ-I|SUB|O|20200810
B|659|PRINCIPAL VNEQ-I|SWI|O|20200810
B|660|PRINCIPAL VNEQ-I|SUB|O|20200817
B|661|PRINCIPAL VNEQ-I|SWI|O|20200817
B|662|PRINCIPAL VNEQ-I|SUB|O|20200824
B|663|PRINCIPAL VNEQ-I|SWI|O|20200824
B|664|PRINCIPAL VNEQ-I|SUB|O|20200831
B|665|PRINCIPAL VNEQ-I|SWI|O|20200831
B|666|PRINCIPAL VNEQ-I|SUB|O|20200908
B|667|PRINCIPAL VNEQ-I|SWI|O|20200908
B|668|PRINCIPAL VNEQ-I|SUB|O|20200914
B|669|PRINCIPAL VNEQ-I|SWI|O|20200914
B|670|PRINCIPAL VNEQ-I|SUB|O|20200921
B|671|PRINCIPAL VNEQ-I|SWI|O|20200921
B|672|PRINCIPAL VNEQ-I|SUB|O|20200928
B|673|PRINCIPAL VNEQ-I|SWI|O|20200928
B|674|PRINCIPAL VNEQ-I|SUB|O|20201005
B|675|PRINCIPAL VNEQ-I|SWI|O|20201005
B|676|PRINCIPAL VNEQ-I|SUB|O|20201014
B|677|PRINCIPAL VNEQ-I|SWI|O|20201014
B|678|PRINCIPAL VNEQ-I|SUB|O|20201019
B|679|PRINCIPAL VNEQ-I|SWI|O|20201019
B|680|PRINCIPAL VNEQ-I|SUB|O|20201026
B|681|PRINCIPAL VNEQ-I|SWI|O|20201026
B|682|PRINCIPAL VNEQ-I|SUB|O|20201102
B|683|PRINCIPAL VNEQ-I|SWI|O|20201102
B|684|PRINCIPAL VNEQ-I|SUB|O|20201109
B|685|PRINCIPAL VNEQ-I|SWI|O|20201109
B|686|PRINCIPAL VNEQ-I|SUB|O|20201116
B|687|PRINCIPAL VNEQ-I|SWI|O|20201116
B|688|PRINCIPAL VNEQ-I|SUB|O|20201123
B|689|PRINCIPAL VNEQ-I|SWI|O|20201123
B|690|PRINCIPAL VNEQ-I|SUB|O|20201130
B|691|PRINCIPAL VNEQ-I|SWI|O|20201130
B|692|PRINCIPAL VNEQ-I|SUB|O|20201208
B|693|PRINCIPAL VNEQ-I|SWI|O|20201208
B|694|PRINCIPAL VNEQ-I|SUB|O|20201214
B|695|PRINCIPAL VNEQ-I|SWI|O|20201214
B|696|PRINCIPAL VNEQ-I|SUB|O|20201221
B|697|PRINCIPAL VNEQ-I|SWI|O|20201221
B|698|PRINCIPAL VNEQ-I|SUB|O|20201228
B|699|PRINCIPAL VNEQ-I|SWI|O|20201228
B|700|PRINCIPAL VNEQ-I|SUB|O|20210104
B|701|PRINCIPAL VNEQ-I|SWI|O|20210104
B|702|PRINCIPAL VNEQ-I|SUB|O|20210111
B|703|PRINCIPAL VNEQ-I|SWI|O|20210111
B|704|PRINCIPAL VNEQ-I|SUB|O|20210118
B|705|PRINCIPAL VNEQ-I|SWI|O|20210118
B|706|PRINCIPAL VNEQ-I|SUB|O|20210125
B|707|PRINCIPAL VNEQ-I|SWI|O|20210125
B|708|PRINCIPAL VNEQ-I|SUB|O|20210201
B|709|PRINCIPAL VNEQ-I|SWI|O|20210201
B|710|PRINCIPAL VNEQ-I|SUB|O|20210208
B|711|PRINCIPAL VNEQ-I|SWI|O|20210208
B|712|PRINCIPAL VNEQ-I|SUB|O|20210215
B|713|PRINCIPAL VNEQ-I|SWI|O|20210215
B|714|PRINCIPAL VNEQ-I|SUB|O|20210222
B|715|PRINCIPAL VNEQ-I|SWI|O|20210222
B|716|PRINCIPAL VNEQ-I|SUB|O|20210301
B|717|PRINCIPAL VNEQ-I|SWI|O|20210301
B|718|PRINCIPAL VNEQ-I|SUB|O|20210308
B|719|PRINCIPAL VNEQ-I|SWI|O|20210308
B|720|PRINCIPAL VNEQ-I|SUB|O|20210315
B|721|PRINCIPAL VNEQ-I|SWI|O|20210315
B|722|PRINCIPAL VNEQ-I|SUB|O|20210322
B|723|PRINCIPAL VNEQ-I|SWI|O|20210322
B|724|PRINCIPAL VNEQ-I|SUB|O|20210329
B|725|PRINCIPAL VNEQ-I|SWI|O|20210329
B|726|PRINCIPAL VNEQ-I|SUB|O|20210405
B|727|PRINCIPAL VNEQ-I|SWI|O|20210405
B|728|PRINCIPAL VNEQ-I|SUB|O|20210412
B|729|PRINCIPAL VNEQ-I|SWI|O|20210412
B|730|PRINCIPAL VNEQ-I|SUB|O|20210419
B|731|PRINCIPAL VNEQ-I|SWI|O|20210419
B|732|PRINCIPAL VNEQ-I|SUB|O|20210426
B|733|PRINCIPAL VNEQ-I|SWI|O|20210426
B|734|PRINCIPAL VNEQ-I|SUB|O|20210503
B|735|PRINCIPAL VNEQ-I|SWI|O|20210503
B|736|PRINCIPAL VNEQ-I|SUB|O|20210510
B|737|PRINCIPAL VNEQ-I|SWI|O|20210510
B|738|PRINCIPAL VNEQ-I|SUB|O|20210517
B|739|PRINCIPAL VNEQ-I|SWI|O|20210517
B|740|PRINCIPAL VNEQ-I|SUB|O|20210524
B|741|PRINCIPAL VNEQ-I|SWI|O|20210524
B|742|PRINCIPAL VNEQ-I|SUB|O|20210531
B|743|PRINCIPAL VNEQ-I|SWI|O|20210531
B|744|PRINCIPAL VNEQ-I|SUB|O|20210607
B|745|PRINCIPAL VNEQ-I|SWI|O|20210607
B|746|PRINCIPAL VNEQ-I|SUB|O|20210614
B|747|PRINCIPAL VNEQ-I|SWI|O|20210614
B|748|PRINCIPAL VNEQ-I|SUB|O|20210621
B|749|PRINCIPAL VNEQ-I|SWI|O|20210621
B|750|PRINCIPAL VNEQ-I|SUB|O|20210628
B|751|PRINCIPAL VNEQ-I|SWI|O|20210628
B|752|PRINCIPAL VNEQ-I|SUB|O|20210705
B|753|PRINCIPAL VNEQ-I|SWI|O|20210705
B|754|PRINCIPAL VNEQ-I|SUB|O|20210712
B|755|PRINCIPAL VNEQ-I|SWI|O|20210712
B|756|PRINCIPAL VNEQ-I|SUB|O|20210719
B|757|PRINCIPAL VNEQ-I|SWI|O|20210719
B|758|PRINCIPAL VNEQ-I|SUB|O|20210726
B|759|PRINCIPAL VNEQ-I|SWI|O|20210726
B|760|PRINCIPAL VNEQ-I|SUB|O|20210802
B|761|PRINCIPAL VNEQ-I|SWI|O|20210802
B|762|PRINCIPAL VNEQ-I|SUB|O|20210809
B|763|PRINCIPAL VNEQ-I|SWI|O|20210809
B|764|PRINCIPAL VNEQ-I|SUB|O|20210816
B|765|PRINCIPAL VNEQ-I|SWI|O|20210816
B|766|PRINCIPAL VNEQ-I|SUB|O|20210823
B|767|PRINCIPAL VNEQ-I|SWI|O|20210823
B|768|PRINCIPAL VNEQ-I|SUB|O|20210830
B|769|PRINCIPAL VNEQ-I|SWI|O|20210830
B|770|PRINCIPAL VNEQ-I|SUB|O|20210906
B|771|PRINCIPAL VNEQ-I|SWI|O|20210906
B|772|PRINCIPAL VNEQ-I|SUB|O|20210913
B|773|PRINCIPAL VNEQ-I|SWI|O|20210913
B|774|PRINCIPAL VNEQ-I|SUB|O|20210920
B|775|PRINCIPAL VNEQ-I|SWI|O|20210920
B|776|PRINCIPAL VNEQ-I|SUB|O|20210927
B|777|PRINCIPAL VNEQ-I|SWI|O|20210927
B|778|PRINCIPAL VNEQ-I|SUB|O|20211004
B|779|PRINCIPAL VNEQ-I|SWI|O|20211004
B|780|PRINCIPAL VNEQ-I|SUB|O|20211011
B|781|PRINCIPAL VNEQ-I|SWI|O|20211011
B|782|PRINCIPAL VNEQ-I|SUB|O|20211018
B|783|PRINCIPAL VNEQ-I|SWI|O|20211018
B|784|PRINCIPAL VNEQ-I|SUB|O|20211025
B|785|PRINCIPAL VNEQ-I|SWI|O|20211025
B|786|PRINCIPAL VNEQ-I|SUB|O|20211101
B|787|PRINCIPAL VNEQ-I|SWI|O|20211101
B|788|PRINCIPAL VNEQ-I|SUB|O|20211108
B|789|PRINCIPAL VNEQ-I|SWI|O|20211108
B|790|PRINCIPAL VNEQ-I|SUB|O|20211115
B|791|PRINCIPAL VNEQ-I|SWI|O|20211115
B|792|PRINCIPAL VNEQ-I|SUB|O|20211122
B|793|PRINCIPAL VNEQ-I|SWI|O|20211122
B|794|PRINCIPAL VNEQ-I|SUB|O|20211129
B|795|PRINCIPAL VNEQ-I|SWI|O|20211129
B|796|PRINCIPAL VNEQ-I|SUB|O|20211206
B|797|PRINCIPAL VNEQ-I|SWI|O|20211206
B|798|PRINCIPAL VNEQ-I|SUB|O|20211213
B|799|PRINCIPAL VNEQ-I|SWI|O|20211213
B|800|PRINCIPAL VNEQ-I|SUB|O|20211220
B|801|PRINCIPAL VNEQ-I|SWI|O|20211220
B|802|PRINCIPAL VNEQ-I|SUB|O|20211227
B|803|PRINCIPAL VNEQ-I|SWI|O|20211227
B|804|SCBRF|RED|O|20200316
B|805|SCBRF|SWO|O|20200316
B|806|SCBRF|RED|O|20200416
B|807|SCBRF|SWO|O|20200416
B|808|SCBRF|RED|O|20200518
B|809|SCBRF|SWO|O|20200518
B|810|SCBRF|RED|O|20200616
B|811|SCBRF|SWO|O|20200616
B|812|SCBRF|RED|O|20200716
B|813|SCBRF|SWO|O|20200716
B|814|SCBRF|RED|O|20200817
B|815|SCBRF|SWO|O|20200817
B|816|SCBRF|RED|O|20200916
B|817|SCBRF|SWO|O|20200916
B|818|SCBRF|RED|O|20201016
B|819|SCBRF|SWO|O|20201016
B|820|SCBRF|RED|O|20201116
B|821|SCBRF|SWO|O|20201116
B|822|SCBRF|RED|O|20201216
B|823|SCBRF|SWO|O|20201216
B|824|SCBPGF|SUB|O|20200310
B|825|SCBPGF|RED|O|20200310
B|826|SCBPGF|SWO|O|20200310
B|827|SCBPGF|SWI|O|20200310
B|828|SCBPGF|SUB|O|20200311
B|829|SCBPGF|RED|O|20200311
B|830|SCBPGF|SWO|O|20200311
B|831|SCBPGF|SWI|O|20200311
B|832|SCBPGF|SUB|O|20200312
B|833|SCBPGF|RED|O|20200312
B|834|SCBPGF|SWO|O|20200312
B|835|SCBPGF|SWI|O|20200312
B|836|SCBPGF|SUB|O|20200313
B|837|SCBPGF|RED|O|20200313
B|838|SCBPGF|SWO|O|20200313
B|839|SCBPGF|SWI|O|20200313
B|840|SCBPGF|SUB|O|20200316
B|841|SCBPGF|RED|O|20200316
B|842|SCBPGF|SWO|O|20200316
B|843|SCBPGF|SWI|O|20200316
B|844|SCBPGF|SUB|O|20200317
B|845|SCBPGF|RED|O|20200317
B|846|SCBPGF|SWO|O|20200317
B|847|SCBPGF|SWI|O|20200317
B|848|SCBPGF|SUB|O|20200318
B|849|SCBPGF|RED|O|20200318
B|850|SCBPGF|SWO|O|20200318
B|851|SCBPGF|SWI|O|20200318
B|852|SCBPGF|SUB|O|20200319
B|853|SCBPGF|RED|O|20200319
B|854|SCBPGF|SWO|O|20200319
B|855|SCBPGF|SWI|O|20200319
B|856|SCBPGF|SUB|O|20200320
B|857|SCBPGF|RED|O|20200320
B|858|SCBPGF|SWO|O|20200320
B|859|SCBPGF|SWI|O|20200320
B|860|SCBPGF|SUB|O|20200323
B|861|SCBPGF|RED|O|20200323
B|862|SCBPGF|SWO|O|20200323
B|863|SCBPGF|SWI|O|20200323
B|864|SCBPGF|SUB|O|20200324
B|865|SCBPGF|RED|O|20200324
B|866|SCBPGF|SWO|O|20200324
B|867|SCBPGF|SWI|O|20200324
B|868|SCBPGF|SUB|O|20200325
B|869|SCBPGF|RED|O|20200325
B|870|SCBPGF|SWO|O|20200325
B|871|SCBPGF|SWI|O|20200325
B|872|SCBPGF|SUB|O|20200326
B|873|SCBPGF|RED|O|20200326
B|874|SCBPGF|SWO|O|20200326
B|875|SCBPGF|SWI|O|20200326
B|876|SCBPGF|SUB|O|20200327
B|877|SCBPGF|RED|O|20200327
B|878|SCBPGF|SWO|O|20200327
B|879|SCBPGF|SWI|O|20200327
B|880|SCBPGF|SUB|O|20200330
B|881|SCBPGF|RED|O|20200330
B|882|SCBPGF|SWO|O|20200330
B|883|SCBPGF|SWI|O|20200330
B|884|SCBPGF|SUB|O|20200331
B|885|SCBPGF|RED|O|20200331
B|886|SCBPGF|SWO|O|20200331
B|887|SCBPGF|SWI|O|20200331
B|888|SCBPGF|SUB|O|20200401
B|889|SCBPGF|RED|O|20200401
B|890|SCBPGF|SWO|O|20200401
B|891|SCBPGF|SWI|O|20200401
B|892|SCBPGF|SUB|O|20200402
B|893|SCBPGF|RED|O|20200402
B|894|SCBPGF|SWO|O|20200402
B|895|SCBPGF|SWI|O|20200402
B|896|SCBPGF|SUB|O|20200403
B|897|SCBPGF|RED|O|20200403
B|898|SCBPGF|SWO|O|20200403
B|899|SCBPGF|SWI|O|20200403
B|900|SCBPGF|SUB|O|20200407
B|901|SCBPGF|RED|O|20200407
B|902|SCBPGF|SWO|O|20200407
B|903|SCBPGF|SWI|O|20200407
B|904|SCBPGF|SUB|O|20200408
B|905|SCBPGF|RED|O|20200408
B|906|SCBPGF|SWO|O|20200408
B|907|SCBPGF|SWI|O|20200408
B|908|SCBPGF|SUB|O|20200409
B|909|SCBPGF|RED|O|20200409
B|910|SCBPGF|SWO|O|20200409
B|911|SCBPGF|SWI|O|20200409
B|912|SCBPGF|SUB|O|20200416
B|913|SCBPGF|RED|O|20200416
B|914|SCBPGF|SWO|O|20200416
B|915|SCBPGF|SWI|O|20200416
B|916|SCBPGF|SUB|O|20200417
B|917|SCBPGF|RED|O|20200417
B|918|SCBPGF|SWO|O|20200417
B|919|SCBPGF|SWI|O|20200417
B|920|SCBPGF|SUB|O|20200420
B|921|SCBPGF|RED|O|20200420
B|922|SCBPGF|SWO|O|20200420
B|923|SCBPGF|SWI|O|20200420
B|924|SCBPGF|SUB|O|20200421
B|925|SCBPGF|RED|O|20200421
B|926|SCBPGF|SWO|O|20200421
B|927|SCBPGF|SWI|O|20200421
B|928|SCBPGF|SUB|O|20200422
B|929|SCBPGF|RED|O|20200422
B|930|SCBPGF|SWO|O|20200422
B|931|SCBPGF|SWI|O|20200422
B|932|SCBPGF|SUB|O|20200423
B|933|SCBPGF|RED|O|20200423
B|934|SCBPGF|SWO|O|20200423
B|935|SCBPGF|SWI|O|20200423
B|936|SCBPGF|SUB|O|20200424
B|937|SCBPGF|RED|O|20200424
B|938|SCBPGF|SWO|O|20200424
B|939|SCBPGF|SWI|O|20200424
B|940|SCBPGF|SUB|O|20200427
B|941|SCBPGF|RED|O|20200427
B|942|SCBPGF|SWO|O|20200427
B|943|SCBPGF|SWI|O|20200427
B|944|SCBPGF|SUB|O|20200428
B|945|SCBPGF|RED|O|20200428
B|946|SCBPGF|SWO|O|20200428
B|947|SCBPGF|SWI|O|20200428
B|948|SCBPGF|SUB|O|20200429
B|949|SCBPGF|RED|O|20200429
B|950|SCBPGF|SWO|O|20200429
B|951|SCBPGF|SWI|O|20200429
B|952|SCBPGF|SUB|O|20200430
B|953|SCBPGF|RED|O|20200430
B|954|SCBPGF|SWO|O|20200430
B|955|SCBPGF|SWI|O|20200430
B|956|SCBPGF|SUB|O|20200505
B|957|SCBPGF|RED|O|20200505
B|958|SCBPGF|SWO|O|20200505
B|959|SCBPGF|SWI|O|20200505
B|960|SCBPGF|SUB|O|20200507
B|961|SCBPGF|RED|O|20200507
B|962|SCBPGF|SWO|O|20200507
B|963|SCBPGF|SWI|O|20200507
B|964|SCBPGF|SUB|O|20200511
B|965|SCBPGF|RED|O|20200511
B|966|SCBPGF|SWO|O|20200511
B|967|SCBPGF|SWI|O|20200511
B|968|SCBPGF|SUB|O|20200512
B|969|SCBPGF|RED|O|20200512
B|970|SCBPGF|SWO|O|20200512
B|971|SCBPGF|SWI|O|20200512
B|972|SCBPGF|SUB|O|20200513
B|973|SCBPGF|RED|O|20200513
B|974|SCBPGF|SWO|O|20200513
B|975|SCBPGF|SWI|O|20200513
B|976|SCBPGF|SUB|O|20200514
B|977|SCBPGF|RED|O|20200514
B|978|SCBPGF|SWO|O|20200514
B|979|SCBPGF|SWI|O|20200514
B|980|SCBPGF|SUB|O|20200515
B|981|SCBPGF|RED|O|20200515
B|982|SCBPGF|SWO|O|20200515
B|983|SCBPGF|SWI|O|20200515
B|984|SCBPGF|SUB|O|20200518
B|985|SCBPGF|RED|O|20200518
B|986|SCBPGF|SWO|O|20200518
B|987|SCBPGF|SWI|O|20200518
B|988|SCBPGF|SUB|O|20200519
B|989|SCBPGF|RED|O|20200519
B|990|SCBPGF|SWO|O|20200519
B|991|SCBPGF|SWI|O|20200519
B|992|SCBPGF|SUB|O|20200520
B|993|SCBPGF|RED|O|20200520
B|994|SCBPGF|SWO|O|20200520
B|995|SCBPGF|SWI|O|20200520
B|996|SCBPGF|SUB|O|20200522
B|997|SCBPGF|RED|O|20200522
B|998|SCBPGF|SWO|O|20200522
B|999|SCBPGF|SWI|O|20200522
B|1000|SCBPGF|SUB|O|20200526
B|1001|SCBPGF|RED|O|20200526
F|1000||||